module gitlab.com/tozd/go/errors

go 1.22

require (
	github.com/google/go-cmp v0.5.8
	github.com/pkg/errors v0.9.1
	github.com/stretchr/testify v1.9.0
)

require (
	github.com/davecgh/go-spew v1.1.1 // indirect
	github.com/pmezard/go-difflib v1.0.0 // indirect
	gopkg.in/yaml.v3 v3.0.1 // indirect
)
